{
    "name": "PlayerControls",
    "maps": [
        {
            "name": "MainControls",
            "id": "96924143-6a61-4ba8-bde8-d6df4d77c108",
            "actions": [
                {
                    "name": "Move",
                    "type": "Value",
                    "id": "713ac102-d94e-4ef5-943f-75106708d716",
                    "expectedControlType": "Vector2",
                    "processors": "",
                    "interactions": "",
                    "initialStateCheck": true
                },
                {
                    "name": "Shoot",
                    "type": "Button",
                    "id": "c3414546-8e7d-4372-af73-d395accbd230",
                    "expectedControlType": "Button",
                    "processors": "",
                    "interactions": "",
                    "initialStateCheck": false
                },
                {
                    "name": "Jump",
                    "type": "Button",
                    "id": "07f56596-1910-4286-b288-e0690133acff",
                    "expectedControlType": "Button",
                    "processors": "",
                    "interactions": "",
                    "initialStateCheck": false
                },
                {
                    "name": "Dash",
                    "type": "Button",
                    "id": "26ed5984-a6c3-4455-8662-6762daea2a1d",
                    "expectedControlType": "Button",
                    "processors": "",
                    "interactions": "",
                    "initialStateCheck": false
                },
                {
                    "name": "Reload",
                    "type": "Button",
                    "id": "7486e169-b800-42c9-8129-531df9e827eb",
                    "expectedControlType": "Button",
                    "processors": "",
                    "interactions": "",
                    "initialStateCheck": false
                },
                {
                    "name": "ChangeWeapon",
                    "type": "Value",
                    "id": "46692f4d-8770-421f-8717-c127bcc8dd80",
                    "expectedControlType": "Axis",
                    "processors": "",
                    "interactions": "",
                    "initialStateCheck": true
                },
                {
                    "name": "Hanging",
                    "type": "Button",
                    "id": "8baaf472-9d2b-44c7-8ace-912b341de2f6",
                    "expectedControlType": "Button",
                    "processors": "",
                    "interactions": "",
                    "initialStateCheck": false
                },
                {
                    "name": "MousePosition",
                    "type": "Value",
                    "id": "0d111141-ece2-456f-bda6-4d167d0d5a50",
                    "expectedControlType": "Vector2",
                    "processors": "",
                    "interactions": "",
                    "initialStateCheck": true
                },
                {
                    "name": "Hook",
                    "type": "Button",
                    "id": "46dfcf76-ed86-442e-bc02-d3612338e05e",
                    "expectedControlType": "Button",
                    "processors": "",
                    "interactions": "",
                    "initialStateCheck": false
                }
            ],
            "bindings": [
                {
                    "name": "2D Vector PC",
                    "id": "070e79dd-4a87-4b98-9559-c45e55fffcde",
                    "path": "2DVector",
                    "interactions": "",
                    "processors": "",
                    "groups": "",
                    "action": "Move",
                    "isComposite": true,
                    "isPartOfComposite": false
                },
                {
                    "name": "up",
                    "id": "2b795f66-f9c6-4251-a966-058a4223ab12",
                    "path": "<Keyboard>/w",
                    "interactions": "",
                    "processors": "",
                    "groups": "Desktop",
                    "action": "Move",
                    "isComposite": false,
                    "isPartOfComposite": true
                },
                {
                    "name": "down",
                    "id": "1184f823-24ed-407e-92d1-dda25772ba77",
                    "path": "<Keyboard>/s",
                    "interactions": "",
                    "processors": "",
                    "groups": "Desktop",
                    "action": "Move",
                    "isComposite": false,
                    "isPartOfComposite": true
                },
                {
                    "name": "left",
                    "id": "6a96c8c4-2116-49fa-a7bc-5dd1dc1d7d9a",
                    "path": "<Keyboard>/a",
                    "interactions": "",
                    "processors": "",
                    "groups": "Desktop",
                    "action": "Move",
                    "isComposite": false,
                    "isPartOfComposite": true
                },
                {
                    "name": "right",
                    "id": "fbfb4c0a-5eff-4b4b-b731-4dcbe6f7d121",
                    "path": "<Keyboard>/d",
                    "interactions": "",
                    "processors": "",
                    "groups": "Desktop",
                    "action": "Move",
                    "isComposite": false,
                    "isPartOfComposite": true
                },
                {
                    "name": "2D Vector",
                    "id": "555bb865-bf02-458c-b4af-79fbbb968b2f",
                    "path": "2DVector",
                    "interactions": "",
                    "processors": "",
                    "groups": "",
                    "action": "Move",
                    "isComposite": true,
                    "isPartOfComposite": false
                },
                {
                    "name": "up",
                    "id": "781be3da-bc34-4693-ba05-5192664f6cd7",
                    "path": "<Gamepad>/leftStick/up",
                    "interactions": "",
                    "processors": "",
                    "groups": "Gamepad",
                    "action": "Move",
                    "isComposite": false,
                    "isPartOfComposite": true
                },
                {
                    "name": "down",
                    "id": "668ee52f-fb64-4d22-8641-3bf2746b0540",
                    "path": "<Gamepad>/leftStick/down",
                    "interactions": "",
                    "processors": "",
                    "groups": "Gamepad",
                    "action": "Move",
                    "isComposite": false,
                    "isPartOfComposite": true
                },
                {
                    "name": "left",
                    "id": "ecc42d19-c537-4cd2-b0ca-e2e4ebd028c8",
                    "path": "<Gamepad>/leftStick/left",
                    "interactions": "",
                    "processors": "",
                    "groups": "Gamepad",
                    "action": "Move",
                    "isComposite": false,
                    "isPartOfComposite": true
                },
                {
                    "name": "right",
                    "id": "bcdb493a-b20d-414f-a6ed-25acb352f501",
                    "path": "<Gamepad>/leftStick/right",
                    "interactions": "",
                    "processors": "",
                    "groups": "Gamepad",
                    "action": "Move",
                    "isComposite": false,
                    "isPartOfComposite": true
                },
                {
                    "name": "",
                    "id": "60d21513-f6d9-42af-a323-fe470d7d52e7",
                    "path": "<Keyboard>/space",
                    "interactions": "",
                    "processors": "",
                    "groups": "Desktop",
                    "action": "Jump",
                    "isComposite": false,
                    "isPartOfComposite": false
                },
                {
                    "name": "",
                    "id": "b91dec12-f2a2-4c89-92c4-d97f51112985",
                    "path": "<Gamepad>/buttonSouth",
                    "interactions": "",
                    "processors": "",
                    "groups": "Gamepad",
                    "action": "Jump",
                    "isComposite": false,
                    "isPartOfComposite": false
                },
                {
                    "name": "",
                    "id": "9fc25326-418f-4a83-bcdd-5cb73606c3f9",
                    "path": "<Mouse>/leftButton",
                    "interactions": "",
                    "processors": "",
                    "groups": "Desktop",
                    "action": "Shoot",
                    "isComposite": false,
                    "isPartOfComposite": false
                },
                {
                    "name": "",
                    "id": "d04c3fae-ee04-4817-a386-f0b62b286542",
                    "path": "<Gamepad>/rightTrigger",
                    "interactions": "",
                    "processors": "",
                    "groups": "Gamepad",
                    "action": "Shoot",
                    "isComposite": false,
                    "isPartOfComposite": false
                },
                {
                    "name": "",
                    "id": "26fba0e6-2b2e-4b1c-9dba-e440951a9e6d",
                    "path": "<Keyboard>/r",
                    "interactions": "",
                    "processors": "",
                    "groups": "Desktop",
                    "action": "Reload",
                    "isComposite": false,
                    "isPartOfComposite": false
                },
                {
                    "name": "",
                    "id": "f5707508-5ce0-41c1-bb68-29beafe42762",
                    "path": "<Keyboard>/shift",
                    "interactions": "",
                    "processors": "",
                    "groups": "Desktop",
                    "action": "Dash",
                    "isComposite": false,
                    "isPartOfComposite": false
                },
                {
                    "name": "",
                    "id": "6958f396-05fe-41f4-b91d-1c902c737ef6",
                    "path": "<Mouse>/scroll/y",
                    "interactions": "",
                    "processors": "",
                    "groups": "",
                    "action": "ChangeWeapon",
                    "isComposite": false,
                    "isPartOfComposite": false
                },
                {
                    "name": "",
                    "id": "73e4598f-8752-4799-85f7-597bdde8853e",
                    "path": "<Mouse>/rightButton",
                    "interactions": "",
                    "processors": "",
                    "groups": "",
                    "action": "Hanging",
                    "isComposite": false,
                    "isPartOfComposite": false
                },
                {
                    "name": "",
                    "id": "a9f4acc3-98b1-4c43-97b6-7875744a8ce8",
                    "path": "<Mouse>/position",
                    "interactions": "",
                    "processors": "",
                    "groups": "Desktop",
                    "action": "MousePosition",
                    "isComposite": false,
                    "isPartOfComposite": false
                },
                {
                    "name": "",
                    "id": "2976c270-f756-4161-a2ba-36bc5d5d62f5",
                    "path": "<Mouse>/rightButton",
                    "interactions": "",
                    "processors": "",
                    "groups": "",
                    "action": "Hook",
                    "isComposite": false,
                    "isPartOfComposite": false
                }
            ]
        }
    ],
    "controlSchemes": [
        {
            "name": "Desktop",
            "bindingGroup": "Desktop",
            "devices": [
                {
                    "devicePath": "<Keyboard>",
                    "isOptional": false,
                    "isOR": false
                }
            ]
        },
        {
            "name": "Gamepad",
            "bindingGroup": "Gamepad",
            "devices": [
                {
                    "devicePath": "<Gamepad>",
                    "isOptional": false,
                    "isOR": false
                }
            ]
        }
    ]
}