%YAML 1.1
%TAG !u! tag:unity3d.com,2011:
--- !u!114 &11400000
MonoBehaviour:
  m_ObjectHideFlags: 0
  m_CorrespondingSourceObject: {fileID: 0}
  m_PrefabInstance: {fileID: 0}
  m_PrefabAsset: {fileID: 0}
  m_GameObject: {fileID: 0}
  m_Enabled: 1
  m_EditorHideFlags: 0
  m_Script: {fileID: 11500000, guid: 64d43ff80202d894eb1fa6b8d057b2c3, type: 3}
  m_Name: MainCharacter
  m_EditorClassIdentifier: 
  _movementSpeed: 15
  _jumpForce: 40
  _dashForce: 250
