%YAML 1.1
%TAG !u! tag:unity3d.com,2011:
--- !u!114 &11400000
MonoBehaviour:
  m_ObjectHideFlags: 0
  m_CorrespondingSourceObject: {fileID: 0}
  m_PrefabInstance: {fileID: 0}
  m_PrefabAsset: {fileID: 0}
  m_GameObject: {fileID: 0}
  m_Enabled: 1
  m_EditorHideFlags: 0
  m_Script: {fileID: 11500000, guid: 217917ab5459e8842b4854b549277441, type: 3}
  m_Name: Pistol
  m_EditorClassIdentifier: 
  _name: "\u041F\u0438\u0441\u0442\u043E\u043B\u0435\u0442"
  _weaponModel: {fileID: 1803717837087602, guid: bb25081ffdd68f44395f184002d15cc0, type: 3}
  _bulletPrefab: {fileID: 0}
  _bulletSpeed: 0
  _bulletDamage: 0
  _endlessBullets: 1
  _maxAmmoInCase: 20
  _maxAmmo: 0
  _timeBetweenShots: 0.2
  _timeForReload: 7
  _shotSound: {fileID: 8300000, guid: 4d362594ab9cff444b080542ea244862, type: 3}
  _reloadSound: {fileID: 8300000, guid: 5060e4de09fc530428e3ed96c04c9252, type: 3}
  _icon: {fileID: 0}
