%YAML 1.1
%TAG !u! tag:unity3d.com,2011:
--- !u!162 &1
EditorUserSettings:
  m_ObjectHideFlags: 0
  serializedVersion: 4
  m_ConfigSettings:
    RecentlyUsedSceneGuid-0:
      value: 520457525601585d0e5a082044200a441015197f7e2c7f31282a1e6ab0b4616c
      flags: 0
    RecentlyUsedSceneGuid-1:
      value: 5501520403540d5e0b580f7a137a0d4443161c78292b23642b7b1865e1b96039
      flags: 0
    RecentlyUsedSceneGuid-2:
      value: 01540c5103540b58080a5e7615715a44144e1a7e7a7c23622b2d4932b1e1613a
      flags: 0
    RecentlyUsedSceneGuid-3:
      value: 5453015556510f5e58585d20137708134e4e4f7f2f7173652b2c4936e4b3306b
      flags: 0
    RecentlyUsedSceneGuid-4:
      value: 5a0101550051590e0c585e2111710c44424e497229787268792c1b67b2e36569
      flags: 0
    RecentlyUsedSceneGuid-5:
      value: 515250075c0c595e5f5a5e71122159444e4e4a2f7a7d7f602f284d66b4b76661
      flags: 0
    vcSharedLogLevel:
      value: 0d5e400f0650
      flags: 0
  m_VCAutomaticAdd: 1
  m_VCDebugCom: 0
  m_VCDebugCmd: 0
  m_VCDebugOut: 0
  m_SemanticMergeMode: 2
  m_DesiredImportWorkerCount: 1
  m_StandbyImportWorkerCount: 1
  m_IdleImportWorkerShutdownDelay: 60000
  m_VCShowFailedCheckout: 1
  m_VCOverwriteFailedCheckoutAssets: 1
  m_VCProjectOverlayIcons: 1
  m_VCHierarchyOverlayIcons: 1
  m_VCOtherOverlayIcons: 1
  m_VCAllowAsyncUpdate: 1
  m_ArtifactGarbageCollection: 1
